%YAML 1.1
%TAG !u! tag:unity3d.com,2011:
--- !u!1045 &1
EditorBuildSettings:
  m_ObjectHideFlags: 0
  serializedVersion: 2
  m_Scenes:
  - enabled: 1
    path: Assets/Scenes/MenuStart.unity
    guid: 5e1530010451b404eb8bdfe0a09bbcdb
  - enabled: 1
    path: Assets/Scenes/Level 1.unity
    guid: 2cda990e2423bbf4892e6590ba056729
  - enabled: 1
    path: Assets/Scenes/Level 2.unity
    guid: bee7dd3bfbcb7c64083de2d6658f4c3c
  - enabled: 1
    path: Assets/Scenes/Level 3.unity
    guid: aeba859349075f14892eeb2afe72fa48
  - enabled: 1
    path: Assets/Scenes/MenuEnd.unity
    guid: c8ddf3a26b5f8c540bcb0d16ad878d45
  m_configObjects: {}
