%YAML 1.1
%TAG !u! tag:unity3d.com,2011:
--- !u!74 &7400000
AnimationClip:
  m_ObjectHideFlags: 0
  m_CorrespondingSourceObject: {fileID: 0}
  m_PrefabInstance: {fileID: 0}
  m_PrefabAsset: {fileID: 0}
  m_Name: ChickenMove
  serializedVersion: 7
  m_Legacy: 0
  m_Compressed: 0
  m_UseHighQualityCurve: 1
  m_RotationCurves: []
  m_CompressedRotationCurves: []
  m_EulerCurves: []
  m_PositionCurves: []
  m_ScaleCurves: []
  m_FloatCurves: []
  m_PPtrCurves:
  - serializedVersion: 2
    curve:
    - time: 0
      value: {fileID: 8599900626152481272, guid: 505531a920a60324aa02b4ed57eba7a3, type: 3}
    - time: 0.055555556
      value: {fileID: -2568293382445063353, guid: 505531a920a60324aa02b4ed57eba7a3, type: 3}
    - time: 0.11111111
      value: {fileID: -1005241021392157854, guid: 505531a920a60324aa02b4ed57eba7a3, type: 3}
    - time: 0.16666667
      value: {fileID: -6541630883775786074, guid: 505531a920a60324aa02b4ed57eba7a3, type: 3}
    - time: 0.22222222
      value: {fileID: 1057926888474058224, guid: 505531a920a60324aa02b4ed57eba7a3, type: 3}
    - time: 0.2777778
      value: {fileID: -4502877009813902047, guid: 505531a920a60324aa02b4ed57eba7a3, type: 3}
    - time: 0.33333334
      value: {fileID: -2245718612936611901, guid: 505531a920a60324aa02b4ed57eba7a3, type: 3}
    - time: 0.3888889
      value: {fileID: 6744654028139480773, guid: 505531a920a60324aa02b4ed57eba7a3, type: 3}
    - time: 0.44444445
      value: {fileID: 2132593737070203682, guid: 505531a920a60324aa02b4ed57eba7a3, type: 3}
    - time: 0.5
      value: {fileID: -8715660248446083153, guid: 505531a920a60324aa02b4ed57eba7a3, type: 3}
    - time: 0.5555556
      value: {fileID: -5292059831501525611, guid: 505531a920a60324aa02b4ed57eba7a3, type: 3}
    - time: 0.6111111
      value: {fileID: 4270905622243145952, guid: 505531a920a60324aa02b4ed57eba7a3, type: 3}
    - time: 0.6666667
      value: {fileID: 3094134864017252659, guid: 505531a920a60324aa02b4ed57eba7a3, type: 3}
    - time: 0.7222222
      value: {fileID: -897706079130130723, guid: 505531a920a60324aa02b4ed57eba7a3, type: 3}
    attribute: m_Sprite
    path: 
    classID: 212
    script: {fileID: 0}
    flags: 2
  m_SampleRate: 18
  m_WrapMode: 0
  m_Bounds:
    m_Center: {x: 0, y: 0, z: 0}
    m_Extent: {x: 0, y: 0, z: 0}
  m_ClipBindingConstant:
    genericBindings:
    - serializedVersion: 2
      path: 0
      attribute: 0
      script: {fileID: 0}
      typeID: 212
      customType: 23
      isPPtrCurve: 1
      isIntCurve: 0
      isSerializeReferenceCurve: 0
    pptrCurveMapping:
    - {fileID: 8599900626152481272, guid: 505531a920a60324aa02b4ed57eba7a3, type: 3}
    - {fileID: -2568293382445063353, guid: 505531a920a60324aa02b4ed57eba7a3, type: 3}
    - {fileID: -1005241021392157854, guid: 505531a920a60324aa02b4ed57eba7a3, type: 3}
    - {fileID: -6541630883775786074, guid: 505531a920a60324aa02b4ed57eba7a3, type: 3}
    - {fileID: 1057926888474058224, guid: 505531a920a60324aa02b4ed57eba7a3, type: 3}
    - {fileID: -4502877009813902047, guid: 505531a920a60324aa02b4ed57eba7a3, type: 3}
    - {fileID: -2245718612936611901, guid: 505531a920a60324aa02b4ed57eba7a3, type: 3}
    - {fileID: 6744654028139480773, guid: 505531a920a60324aa02b4ed57eba7a3, type: 3}
    - {fileID: 2132593737070203682, guid: 505531a920a60324aa02b4ed57eba7a3, type: 3}
    - {fileID: -8715660248446083153, guid: 505531a920a60324aa02b4ed57eba7a3, type: 3}
    - {fileID: -5292059831501525611, guid: 505531a920a60324aa02b4ed57eba7a3, type: 3}
    - {fileID: 4270905622243145952, guid: 505531a920a60324aa02b4ed57eba7a3, type: 3}
    - {fileID: 3094134864017252659, guid: 505531a920a60324aa02b4ed57eba7a3, type: 3}
    - {fileID: -897706079130130723, guid: 505531a920a60324aa02b4ed57eba7a3, type: 3}
  m_AnimationClipSettings:
    serializedVersion: 2
    m_AdditiveReferencePoseClip: {fileID: 0}
    m_AdditiveReferencePoseTime: 0
    m_StartTime: 0
    m_StopTime: 0.7777778
    m_OrientationOffsetY: 0
    m_Level: 0
    m_CycleOffset: 0
    m_HasAdditiveReferencePose: 0
    m_LoopTime: 1
    m_LoopBlend: 0
    m_LoopBlendOrientation: 0
    m_LoopBlendPositionY: 0
    m_LoopBlendPositionXZ: 0
    m_KeepOriginalOrientation: 0
    m_KeepOriginalPositionY: 1
    m_KeepOriginalPositionXZ: 0
    m_HeightFromFeet: 0
    m_Mirror: 0
  m_EditorCurves: []
  m_EulerEditorCurves: []
  m_HasGenericRootTransform: 0
  m_HasMotionFloatCurves: 0
  m_Events: []
